Transition from dplyr to data.table - LEARNING WITH SCKINTA
…
Table pivoting is done by the functions spread and gather (or pivot_wider and pivot_longer) from tidyr.

# wide to long (gather) -- combine automatic, manual two columns into transmission
tidy_mtcars_df = untidy_mtcars_df %>% 
  gather(key="transmission",value="tmp",automatic,manual) %>% 
  filter(tmp==1) %>% 
  select(-tmp)

# wide to long (pivot_longer) -- combine automatic, manual two columns into transmission
untidy_mtcars_df %>% 
  pivot_longer(cols=c("automatic","manual"),names_to="transmission",values_to="tmp") %>% 
  filter(tmp==1) %>% 
  select(-tmp)

## # A tibble: 32 x 12
##    model   mpg   cyl  disp    hp  drat    wt  qsec    vs  gear  carb
##    <chr> <dbl> <dbl> <dbl> <dbl> <dbl> <dbl> <dbl> <dbl> <dbl> <dbl>
##  1 Mazd…  21       6  160    110  3.9   2.62  16.5     0     4     4
##  2 Mazd…  21       6  160    110  3.9   2.88  17.0     0     4     4
##  3 Dats…  22.8     4  108     93  3.85  2.32  18.6     1     4     1
##  4 Horn…  21.4     6  258    110  3.08  3.22  19.4     1     3     1
##  5 Horn…  18.7     8  360    175  3.15  3.44  17.0     0     3     2
##  6 Vali…  18.1     6  225    105  2.76  3.46  20.2     1     3     1
##  7 Dust…  14.3     8  360    245  3.21  3.57  15.8     0     3     4
##  8 Merc…  24.4     4  147.    62  3.69  3.19  20       1     4     2
##  9 Merc…  22.8     4  141.    95  3.92  3.15  22.9     1     4     2
## 10 Merc…  19.2     6  168.   123  3.92  3.44  18.3     1     4     4
## # … with 22 more rows, and 1 more variable: transmission <chr>

# long to wide (spread) -- make transmission to group automatic and manual
tidy_mtcars_df %>% 
  mutate(tmp=1) %>% 
  spread(transmission, tmp) %>% 
  mutate_if(function(x){any(is.na(x))}, function(x){ifelse(is.na(x),0,1)})

## # A tibble: 32 x 13
##    model   mpg   cyl  disp    hp  drat    wt  qsec    vs  gear  carb automatic
##    <chr> <dbl> <dbl> <dbl> <dbl> <dbl> <dbl> <dbl> <dbl> <dbl> <dbl>     <dbl>
##  1 Horn…  21.4     6  258    110  3.08  3.22  19.4     1     3     1         1
##  2 Horn…  18.7     8  360    175  3.15  3.44  17.0     0     3     2         1
##  3 Vali…  18.1     6  225    105  2.76  3.46  20.2     1     3     1         1
##  4 Dust…  14.3     8  360    245  3.21  3.57  15.8     0     3     4         1
##  5 Merc…  24.4     4  147.    62  3.69  3.19  20       1     4     2         1
##  6 Merc…  22.8     4  141.    95  3.92  3.15  22.9     1     4     2         1
##  7 Merc…  19.2     6  168.   123  3.92  3.44  18.3     1     4     4         1
##  8 Merc…  17.8     6  168.   123  3.92  3.44  18.9     1     4     4         1
##  9 Merc…  16.4     8  276.   180  3.07  4.07  17.4     0     3     3         1
## 10 Merc…  17.3     8  276.   180  3.07  3.73  17.6     0     3     3         1
## # … with 22 more rows, and 1 more variable: manual <dbl>

# long to wide (pivot_wider) -- 
tidy_mtcars_df %>% 
  mutate(tmp=1) %>% 
  pivot_wider(names_from=transmission, values_from=tmp) %>% 
  mutate_if(function(x){any(is.na(x))}, function(x){ifelse(is.na(x),0,1)})

## # A tibble: 32 x 13
##    model   mpg   cyl  disp    hp  drat    wt  qsec    vs  gear  carb automatic
##    <chr> <dbl> <dbl> <dbl> <dbl> <dbl> <dbl> <dbl> <dbl> <dbl> <dbl>     <dbl>
##  1 Horn…  21.4     6  258    110  3.08  3.22  19.4     1     3     1         1
##  2 Horn…  18.7     8  360    175  3.15  3.44  17.0     0     3     2         1
##  3 Vali…  18.1     6  225    105  2.76  3.46  20.2     1     3     1         1
##  4 Dust…  14.3     8  360    245  3.21  3.57  15.8     0     3     4         1
##  5 Merc…  24.4     4  147.    62  3.69  3.19  20       1     4     2         1
##  6 Merc…  22.8     4  141.    95  3.92  3.15  22.9     1     4     2         1
##  7 Merc…  19.2     6  168.   123  3.92  3.44  18.3     1     4     4         1
##  8 Merc…  17.8     6  168.   123  3.92  3.44  18.9     1     4     4         1
##  9 Merc…  16.4     8  276.   180  3.07  4.07  17.4     0     3     3         1
## 10 Merc…  17.3     8  276.   180  3.07  3.73  17.6     0     3     3         1
## # … with 22 more rows, and 1 more variable: manual <dbl>
…
