PAWS return project EDA - LEARNING WITH SCKINTA
…
# for the people returned animals, How many did they finally own an animal (with 2 year records)?
anti_join(
        semi_join(
                PetPoint %>% 
                        distinct(Person.ID, Animal.ID),
                df %>% filter(return_event_n > 0)
        ),
        return_records_withPerson %>% 
                distinct(Person.ID, Animal.ID)
) %>% distinct(Person.ID)

## Joining, by = "Person.ID"Joining, by = c("Person.ID", "Animal.ID")

## # A tibble: 34 x 1
##    Person.ID
##    <chr>    
##  1 P30053765
##  2 P31090480
##  3 P30540016
##  4 P31626783
##  5 P30662304
##  6 P29987915
##  7 P30045428
##  8 P31235232
##  9 P30580728
## 10 P30092033
## # … with 24 more rows
…
