…
check preprocessed data.frame

chocolate_rec %>% 
    prep(new_data = NULL) %>% 
    juice()

## # A tibble: 2,443 × 22
##    cocoa_percent ingredient_num rating_bl company_manufactur… company_manufactu…
##            <dbl>          <dbl> <fct>                   <dbl>              <dbl>
##  1            76              3 >=3                         0                  0
##  2            76              3 >=3                         0                  0
##  3            76              3 >=3                         0                  0
##  4            68              3 >=3                         0                  0
##  5            72              3 >=3                         0                  0
##  6            80              3 >=3                         0                  0
##  7            68              3 >=3                         0                  0
##  8            70              4 >=3                         0                  0
##  9            63              4 >=3                         0                  0
## 10            70              4 < 3                         0                  0
## # … with 2,433 more rows, and 17 more variables:
## #   company_manufacturer_Dandelion <dbl>, company_manufacturer_Fresco <dbl>,
## #   company_manufacturer_Pralus <dbl>, company_manufacturer_Soma <dbl>,
## #   company_manufacturer_otherCompany <dbl>,
## #   country_of_bean_origin_blend_Non.blend <dbl>, igrdt_sugar_X1 <dbl>,
## #   igrdt_vanilla_X1 <dbl>, igrdt_salt_X1 <dbl>, igrdt_sweeter_X1 <dbl>,
## #   cocoa_X1 <dbl>, creamy_X1 <dbl>, fatty_X1 <dbl>, earthy_X1 <dbl>, …
…
define grid

grid_max_entropy, grid_regular, grid_random can be used for quickly specify levels for tuned hyperparameters.

be aware that mtry usually requires range parameters, it usually contains the sqrt(predictor_num)

xg_grid <- grid_regular(
    mtry(range = c(3, 10)),
    min_n(),
    levels = 5 # each tune how many levels
)

xg_grid

## # A tibble: 25 × 2
##     mtry min_n
##    <int> <int>
##  1     3     2
##  2     4     2
##  3     6     2
##  4     8     2
##  5    10     2
##  6     3    11
##  7     4    11
##  8     6    11
##  9     8    11
## 10    10    11
## # … with 15 more rows
…
## # A tibble: 2 × 4
##   .metric  .estimator .estimate .config             
##   <chr>    <chr>          <dbl> <chr>               
## 1 accuracy binary         0.783 Preprocessor1_Model1
## 2 roc_auc  binary         0.668 Preprocessor1_Model1

metrics are comparable to training data, so not overfiting.

collect_predictions for test data

final_fit %>% 
    collect_predictions()

## # A tibble: 612 × 7
##    id               `.pred_< 3` `.pred_>=3`  .row .pred_class rating_bl .config 
##    <chr>                  <dbl>       <dbl> <int> <fct>       <fct>     <chr>   
##  1 train/test split      0.143        0.857     3 >=3         >=3       Preproc…
##  2 train/test split      0.134        0.866    10 >=3         < 3       Preproc…
##  3 train/test split      0.0882       0.912    11 >=3         < 3       Preproc…
##  4 train/test split      0.131        0.869    17 >=3         >=3       Preproc…
##  5 train/test split      0.0882       0.912    24 >=3         >=3       Preproc…
##  6 train/test split      0.0882       0.912    25 >=3         >=3       Preproc…
##  7 train/test split      0.0798       0.920    32 >=3         >=3       Preproc…
##  8 train/test split      0.228        0.772    42 >=3         < 3       Preproc…
##  9 train/test split      0.443        0.557    46 >=3         < 3       Preproc…
## 10 train/test split      0.347        0.653    55 >=3         < 3       Preproc…
## # … with 602 more rows
…
