From R to Python: Data Wrangling (part1) - LEARNING WITH SCKINTA
…
1. Subset data.frame

Subsetting data.frame can be taken from two dimensition – by column and by row. Usually, a tidy dataset put feature/variable as column and sample as row. We select subset of columns/variables and filter/slice out a subset of rows

For both R and python, the column subsetting can be done by 1) name 2) index and row subsetting can be by 1) name 2)index and 3) boolean value

1.1 Subset by columns (select)

R version:

# select column by index
mtcars %>% select(c(12,1))

## # A tibble: 32 x 2
##     carb model            
##    <dbl> <chr>            
##  1     4 Mazda RX4        
##  2     4 Mazda RX4 Wag    
##  3     1 Datsun 710       
##  4     1 Hornet 4 Drive   
##  5     2 Hornet Sportabout
##  6     1 Valiant          
##  7     4 Duster 360       
##  8     2 Merc 240D        
##  9     2 Merc 230         
## 10     4 Merc 280         
## # … with 22 more rows

# select column by name (model,mpg)
mtcars %>% select(model,mpg)

## # A tibble: 32 x 2
##    model               mpg
##    <chr>             <dbl>
##  1 Mazda RX4          21  
##  2 Mazda RX4 Wag      21  
##  3 Datsun 710         22.8
##  4 Hornet 4 Drive     21.4
##  5 Hornet Sportabout  18.7
##  6 Valiant            18.1
##  7 Duster 360         14.3
##  8 Merc 240D          24.4
##  9 Merc 230           22.8
## 10 Merc 280           19.2
## # … with 22 more rows

# select column by partial name -- matches can use regex but contains do not
mtcars %>% select(matches("^m"))

## # A tibble: 32 x 2
##    model               mpg
##    <chr>             <dbl>
##  1 Mazda RX4          21  
##  2 Mazda RX4 Wag      21  
##  3 Datsun 710         22.8
##  4 Hornet 4 Drive     21.4
##  5 Hornet Sportabout  18.7
##  6 Valiant            18.1
##  7 Duster 360         14.3
##  8 Merc 240D          24.4
##  9 Merc 230           22.8
## 10 Merc 280           19.2
## # … with 22 more rows

mtcars %>% select(contains("m"))

## # A tibble: 32 x 3
##    model               mpg    am
##    <chr>             <dbl> <dbl>
##  1 Mazda RX4          21       1
##  2 Mazda RX4 Wag      21       1
##  3 Datsun 710         22.8     1
##  4 Hornet 4 Drive     21.4     0
##  5 Hornet Sportabout  18.7     0
##  6 Valiant            18.1     0
##  7 Duster 360         14.3     0
##  8 Merc 240D          24.4     0
##  9 Merc 230           22.8     0
## 10 Merc 280           19.2     0
## # … with 22 more rows
…
# filter/slice by index
mtcars %>% slice(5:n())

## # A tibble: 28 x 12
##    model         mpg   cyl  disp    hp  drat    wt  qsec    vs    am  gear  carb
##    <chr>       <dbl> <dbl> <dbl> <dbl> <dbl> <dbl> <dbl> <dbl> <dbl> <dbl> <dbl>
##  1 Hornet Spo…  18.7     8  360    175  3.15  3.44  17.0     0     0     3     2
##  2 Valiant      18.1     6  225    105  2.76  3.46  20.2     1     0     3     1
##  3 Duster 360   14.3     8  360    245  3.21  3.57  15.8     0     0     3     4
##  4 Merc 240D    24.4     4  147.    62  3.69  3.19  20       1     0     4     2
##  5 Merc 230     22.8     4  141.    95  3.92  3.15  22.9     1     0     4     2
##  6 Merc 280     19.2     6  168.   123  3.92  3.44  18.3     1     0     4     4
##  7 Merc 280C    17.8     6  168.   123  3.92  3.44  18.9     1     0     4     4
##  8 Merc 450SE   16.4     8  276.   180  3.07  4.07  17.4     0     0     3     3
##  9 Merc 450SL   17.3     8  276.   180  3.07  3.73  17.6     0     0     3     3
## 10 Merc 450SLC  15.2     8  276.   180  3.07  3.78  18       0     0     3     3
## # … with 18 more rows

mtcars %>% filter(between(row_number(),5,n()))

## # A tibble: 28 x 12
##    model         mpg   cyl  disp    hp  drat    wt  qsec    vs    am  gear  carb
##    <chr>       <dbl> <dbl> <dbl> <dbl> <dbl> <dbl> <dbl> <dbl> <dbl> <dbl> <dbl>
##  1 Hornet Spo…  18.7     8  360    175  3.15  3.44  17.0     0     0     3     2
##  2 Valiant      18.1     6  225    105  2.76  3.46  20.2     1     0     3     1
##  3 Duster 360   14.3     8  360    245  3.21  3.57  15.8     0     0     3     4
##  4 Merc 240D    24.4     4  147.    62  3.69  3.19  20       1     0     4     2
##  5 Merc 230     22.8     4  141.    95  3.92  3.15  22.9     1     0     4     2
##  6 Merc 280     19.2     6  168.   123  3.92  3.44  18.3     1     0     4     4
##  7 Merc 280C    17.8     6  168.   123  3.92  3.44  18.9     1     0     4     4
##  8 Merc 450SE   16.4     8  276.   180  3.07  4.07  17.4     0     0     3     3
##  9 Merc 450SL   17.3     8  276.   180  3.07  3.73  17.6     0     0     3     3
## 10 Merc 450SLC  15.2     8  276.   180  3.07  3.78  18       0     0     3     3
## # … with 18 more rows
…
tmp_mtcars

2. Add row or column

As mentioned, a tidy dataset put feature/variable as column and sample as row.. Adding row means adding a new data point which can be done by add_rows, while adding column means adding a new variable which usually takes calculation from other variables in the data.frame

R version:

# add row to specific location
mtcars %>% add_row(model="Honda Pilot", cyl=6, am=0, .before=2)

## # A tibble: 33 x 12
##    model         mpg   cyl  disp    hp  drat    wt  qsec    vs    am  gear  carb
##    <chr>       <dbl> <dbl> <dbl> <dbl> <dbl> <dbl> <dbl> <dbl> <dbl> <dbl> <dbl>
##  1 Mazda RX4    21       6  160    110  3.9   2.62  16.5     0     1     4     4
##  2 Honda Pilot  NA       6   NA     NA NA    NA     NA      NA     0    NA    NA
##  3 Mazda RX4 …  21       6  160    110  3.9   2.88  17.0     0     1     4     4
##  4 Datsun 710   22.8     4  108     93  3.85  2.32  18.6     1     1     4     1
##  5 Hornet 4 D…  21.4     6  258    110  3.08  3.22  19.4     1     0     3     1
##  6 Hornet Spo…  18.7     8  360    175  3.15  3.44  17.0     0     0     3     2
##  7 Valiant      18.1     6  225    105  2.76  3.46  20.2     1     0     3     1
##  8 Duster 360   14.3     8  360    245  3.21  3.57  15.8     0     0     3     4
##  9 Merc 240D    24.4     4  147.    62  3.69  3.19  20       1     0     4     2
## 10 Merc 230     22.8     4  141.    95  3.92  3.15  22.9     1     0     4     2
## # … with 23 more rows

# add column to explicitly specificy what variable "am" means
mtcars %>% 
  mutate(transmission=case_when(am==1~"manual", am==0~"automatic"))

## # A tibble: 32 x 13
##    model   mpg   cyl  disp    hp  drat    wt  qsec    vs    am  gear  carb
##    <chr> <dbl> <dbl> <dbl> <dbl> <dbl> <dbl> <dbl> <dbl> <dbl> <dbl> <dbl>
##  1 Mazd…  21       6  160    110  3.9   2.62  16.5     0     1     4     4
##  2 Mazd…  21       6  160    110  3.9   2.88  17.0     0     1     4     4
##  3 Dats…  22.8     4  108     93  3.85  2.32  18.6     1     1     4     1
##  4 Horn…  21.4     6  258    110  3.08  3.22  19.4     1     0     3     1
##  5 Horn…  18.7     8  360    175  3.15  3.44  17.0     0     0     3     2
##  6 Vali…  18.1     6  225    105  2.76  3.46  20.2     1     0     3     1
##  7 Dust…  14.3     8  360    245  3.21  3.57  15.8     0     0     3     4
##  8 Merc…  24.4     4  147.    62  3.69  3.19  20       1     0     4     2
##  9 Merc…  22.8     4  141.    95  3.92  3.15  22.9     1     0     4     2
## 10 Merc…  19.2     6  168.   123  3.92  3.44  18.3     1     0     4     4
## # … with 22 more rows, and 1 more variable: transmission <chr>
…
tmp_mtcars = mtcars
tmp_mtcars["transmission"] = tmp_mtcars.apply(add_transmission, axis=1)
tmp_mtcars.head()

3. Pivot data.frame

Tidyverse/tidyr makes pivoting data.frame hundred times more convenient than base R. It is frequently used for tiding the data. There is rumor saying that Tidyverse gonna change spread and gather to pivot which is the Python function for pivoting data.frame.

Here is an example of untidy data (untidy_mtcars1) in which one variable (tranmission) is split to two columns (manual, automatic).

## # A tibble: 32 x 13
##    model   mpg   cyl  disp    hp  drat    wt  qsec    vs  gear  carb automatic
##    <chr> <dbl> <dbl> <dbl> <dbl> <dbl> <dbl> <dbl> <dbl> <dbl> <dbl>     <dbl>
##  1 Mazd…  21       6  160    110  3.9   2.62  16.5     0     4     4         0
##  2 Mazd…  21       6  160    110  3.9   2.88  17.0     0     4     4         0
##  3 Dats…  22.8     4  108     93  3.85  2.32  18.6     1     4     1         0
##  4 Horn…  21.4     6  258    110  3.08  3.22  19.4     1     3     1         1
##  5 Horn…  18.7     8  360    175  3.15  3.44  17.0     0     3     2         1
##  6 Vali…  18.1     6  225    105  2.76  3.46  20.2     1     3     1         1
##  7 Dust…  14.3     8  360    245  3.21  3.57  15.8     0     3     4         1
##  8 Merc…  24.4     4  147.    62  3.69  3.19  20       1     4     2         1
##  9 Merc…  22.8     4  141.    95  3.92  3.15  22.9     1     4     2         1
## 10 Merc…  19.2     6  168.   123  3.92  3.44  18.3     1     4     4         1
## # … with 22 more rows, and 1 more variable: manual <dbl>

Here is another example of untidy data (untidy_mtcars2) in which two variables (gear, carb) are put together as one variable (number) while using “gearCarb” to indicate which it refers to

## # A tibble: 64 x 12
##    model     mpg   cyl  disp    hp  drat    wt  qsec    vs    am gearCarb number
##    <chr>   <dbl> <dbl> <dbl> <dbl> <dbl> <dbl> <dbl> <dbl> <dbl> <chr>     <dbl>
##  1 AMC Ja…  15.2     8   304   150  3.15  3.44  17.3     0     0 gear          3
##  2 AMC Ja…  15.2     8   304   150  3.15  3.44  17.3     0     0 carb          2
##  3 Cadill…  10.4     8   472   205  2.93  5.25  18.0     0     0 gear          3
##  4 Cadill…  10.4     8   472   205  2.93  5.25  18.0     0     0 carb          4
##  5 Camaro…  13.3     8   350   245  3.73  3.84  15.4     0     0 gear          3
##  6 Camaro…  13.3     8   350   245  3.73  3.84  15.4     0     0 carb          4
##  7 Chrysl…  14.7     8   440   230  3.23  5.34  17.4     0     0 gear          3
##  8 Chrysl…  14.7     8   440   230  3.23  5.34  17.4     0     0 carb          4
##  9 Datsun…  22.8     4   108    93  3.85  2.32  18.6     1     1 gear          4
## 10 Datsun…  22.8     4   108    93  3.85  2.32  18.6     1     1 carb          1
## # … with 54 more rows

To tidy the untidy_mtcars1 we gather two variables (manual and automatic) to one variable (transmission). In table shape, it is “wide to long” pivotting. To tidy the untidy_mtcars2, we spread “number” column to “gear” and “carb”. This is “long to wide” pivotting

3.1 long to wide (spread)

R version:

untidy_mtcars2 %>% spread(key=gearCarb, value=number)

## # A tibble: 32 x 12
##    model         mpg   cyl  disp    hp  drat    wt  qsec    vs    am  carb  gear
##    <chr>       <dbl> <dbl> <dbl> <dbl> <dbl> <dbl> <dbl> <dbl> <dbl> <dbl> <dbl>
##  1 AMC Javelin  15.2     8 304     150  3.15  3.44  17.3     0     0     2     3
##  2 Cadillac F…  10.4     8 472     205  2.93  5.25  18.0     0     0     4     3
##  3 Camaro Z28   13.3     8 350     245  3.73  3.84  15.4     0     0     4     3
##  4 Chrysler I…  14.7     8 440     230  3.23  5.34  17.4     0     0     4     3
##  5 Datsun 710   22.8     4 108      93  3.85  2.32  18.6     1     1     1     4
##  6 Dodge Chal…  15.5     8 318     150  2.76  3.52  16.9     0     0     2     3
##  7 Duster 360   14.3     8 360     245  3.21  3.57  15.8     0     0     4     3
##  8 Ferrari Di…  19.7     6 145     175  3.62  2.77  15.5     0     1     6     5
##  9 Fiat 128     32.4     4  78.7    66  4.08  2.2   19.5     1     1     1     4
## 10 Fiat X1-9    27.3     4  79      66  4.08  1.94  18.9     1     1     1     4
## # … with 22 more rows
…
tidy_mtcars2.head()

3.2 wide to long (gather)

R version:

untidy_mtcars1 %>% 
  gather(key="transmission", value="value", automatic, manual) %>% 
  filter(value==1) %>% 
  select(-value)

## # A tibble: 32 x 12
##    model   mpg   cyl  disp    hp  drat    wt  qsec    vs  gear  carb
##    <chr> <dbl> <dbl> <dbl> <dbl> <dbl> <dbl> <dbl> <dbl> <dbl> <dbl>
##  1 Horn…  21.4     6  258    110  3.08  3.22  19.4     1     3     1
##  2 Horn…  18.7     8  360    175  3.15  3.44  17.0     0     3     2
##  3 Vali…  18.1     6  225    105  2.76  3.46  20.2     1     3     1
##  4 Dust…  14.3     8  360    245  3.21  3.57  15.8     0     3     4
##  5 Merc…  24.4     4  147.    62  3.69  3.19  20       1     4     2
##  6 Merc…  22.8     4  141.    95  3.92  3.15  22.9     1     4     2
##  7 Merc…  19.2     6  168.   123  3.92  3.44  18.3     1     4     4
##  8 Merc…  17.8     6  168.   123  3.92  3.44  18.9     1     4     4
##  9 Merc…  16.4     8  276.   180  3.07  4.07  17.4     0     3     3
## 10 Merc…  17.3     8  276.   180  3.07  3.73  17.6     0     3     3
## # … with 22 more rows, and 1 more variable: transmission <chr>
…
